Time 0
(2,7,3)
(3,9,2)
(1,10,2)
(0,19,2)
Queue 0 closed
Queue 1 closed


Time 1
(2,7,3)
(3,9,2)
(1,10,2)
(0,19,2)
Queue 0 closed
Queue 1 closed


Time 2
(2,7,3)
(3,9,2)
(1,10,2)
(0,19,2)
Queue 0 closed
Queue 1 closed


Time 3
(2,7,3)
(3,9,2)
(1,10,2)
(0,19,2)
Queue 0 closed
Queue 1 closed


Time 4
(2,7,3)
(3,9,2)
(1,10,2)
(0,19,2)
Queue 0 closed
Queue 1 closed


Time 5
(2,7,3)
(3,9,2)
(1,10,2)
(0,19,2)
Queue 0 closed
Queue 1 closed


Time 6
(3,9,2)
(1,10,2)
(0,19,2)
Queue 0 (2 , 7 , 3), 
Queue 1 closed


Time 7
(3,9,2)
(1,10,2)
(0,19,2)
Queue 0 (2 , 7 , 2), 
Queue 1 closed


Time 8
(1,10,2)
(0,19,2)
Queue 0 (2 , 7 , 1), 
Queue 1 (3 , 9 , 2), 


Time 9
(0,19,2)
Queue 0 (1 , 10 , 2), 
Queue 1 (3 , 9 , 1), 


Time 10
(0,19,2)
Queue 0 (1 , 10 , 1), 
Queue 1 closed


Time 11
(0,19,2)
Queue 0 closed
Queue 1 closed


Time 12
(0,19,2)
Queue 0 closed
Queue 1 closed


Time 13
(0,19,2)
Queue 0 closed
Queue 1 closed


Time 14
(0,19,2)
Queue 0 closed
Queue 1 closed


Time 15
(0,19,2)
Queue 0 closed
Queue 1 closed


Time 16
(0,19,2)
Queue 0 closed
Queue 1 closed


Time 17
(0,19,2)
Queue 0 closed
Queue 1 closed


Time 18
Queue 0 closed
Queue 1 (0 , 19 , 2), 


Time 19
Queue 0 closed
Queue 1 (0 , 19 , 1), 


Time 20
Queue 0 closed
Queue 1 closed


Time 21
Queue 0 closed
Queue 1 closed


Time 22
Queue 0 closed
Queue 1 closed


Time 23
Queue 0 closed
Queue 1 closed


Time 24
Queue 0 closed
Queue 1 closed


Time 25
Queue 0 closed
Queue 1 closed


Time 26
Queue 0 closed
Queue 1 closed


Time 27
Queue 0 closed
Queue 1 closed


Time 28
Queue 0 closed
Queue 1 closed


Time 29
Queue 0 closed
Queue 1 closed


Time 30
Queue 0 closed
Queue 1 closed


Time 31
Queue 0 closed
Queue 1 closed


Time 32
Queue 0 closed
Queue 1 closed


Time 33
Queue 0 closed
Queue 1 closed


Time 34
Queue 0 closed
Queue 1 closed


Time 35
Queue 0 closed
Queue 1 closed


Time 36
Queue 0 closed
Queue 1 closed


Time 37
Queue 0 closed
Queue 1 closed


Time 38
Queue 0 closed
Queue 1 closed


Time 39
Queue 0 closed
Queue 1 closed


Time 40
Queue 0 closed
Queue 1 closed


Time 41
Queue 0 closed
Queue 1 closed


Time 42
Queue 0 closed
Queue 1 closed


Time 43
Queue 0 closed
Queue 1 closed


Time 44
Queue 0 closed
Queue 1 closed


Time 45
Queue 0 closed
Queue 1 closed


Time 46
Queue 0 closed
Queue 1 closed


Time 47
Queue 0 closed
Queue 1 closed


Time 48
Queue 0 closed
Queue 1 closed


Time 49
Queue 0 closed
Queue 1 closed


Time 50
Queue 0 closed
Queue 1 closed


Time 51
Queue 0 closed
Queue 1 closed


Time 52
Queue 0 closed
Queue 1 closed


Time 53
Queue 0 closed
Queue 1 closed


Time 54
Queue 0 closed
Queue 1 closed


Time 55
Queue 0 closed
Queue 1 closed


Time 56
Queue 0 closed
Queue 1 closed


Time 57
Queue 0 closed
Queue 1 closed


Time 58
Queue 0 closed
Queue 1 closed


Time 59
Queue 0 closed
Queue 1 closed


Time 60
Queue 0 closed
Queue 1 closed


Queue 0  Average Waiting Time -> 0.0  Average Service Time -> 2.0  Peak Hour -> 1

Queue 1  Average Waiting Time -> 0.0  Average Service Time -> 2.0  Peak Hour -> 1

In total:   Average Waiting Time -> 0.0  Average Service Time -> 2.0  Peak Hour -> 1.0

